{
  "local": {
    "SERVER_MODE": "development",
    "PORT": 5000,
    "DB_NAME": "default_db",
    "DB_USERNAME": "postgres",
    "DB_PASSWORD": "r00t",
    "DB_PORT": 5432,
    "DB_HOST": "pgdb",
    "DB_DIALECT": "postgres",
    "CONFIG_SEQUELIZE_LOGGING": true,
    "SECRET_KEY": "12345",
    "AWS_ACCESS_KEY": "",
    "AWS_SECRET_KEY": "",
    "AWS_BUCKET": "",
    "operatorsAliases": false
  }
}
